<svg id="Layer_1" data-name="Layer 1" xmlns="http://www.w3.org/2000/svg" xmlns:xlink="http://www.w3.org/1999/xlink" viewBox="0 0 71 23">
  <defs>
    <radialGradient id="radial-gradient" cx="23.6" cy="20.33" r="11" gradientTransform="matrix(1, 0, 0, -1, 0, 33)" gradientUnits="userSpaceOnUse">
      <stop offset="0" stop-color="#d6de23"/>
      <stop offset="1" stop-color="#8bc53f" stop-opacity="0"/>
    </radialGradient>
    <radialGradient id="radial-gradient-2" cx="24.53" cy="25.67" r="1.37" xlink:href="#radial-gradient"/>
    <radialGradient id="radial-gradient-3" cx="24.63" cy="24.17" r="1.3" xlink:href="#radial-gradient"/>
    <radialGradient id="radial-gradient-4" cx="23.55" cy="24.48" r="1.1" xlink:href="#radial-gradient"/>
    <radialGradient id="radial-gradient-5" cx="21.86" cy="26.08" r="0.89" xlink:href="#radial-gradient"/>
    <linearGradient id="linear-gradient" x1="35.45" y1="27.11" x2="35.45" y2="12.06" gradientTransform="matrix(1, 0, 0, -1, 0, 33)" gradientUnits="userSpaceOnUse">
      <stop offset="0" stop-color="#8bc53f"/>
      <stop offset="1" stop-color="#8bc53f" stop-opacity="0"/>
    </linearGradient>
    <linearGradient id="linear-gradient-2" x1="5.7" y1="27.11" x2="5.7" y2="12.06" xlink:href="#linear-gradient"/>
    <linearGradient id="linear-gradient-3" x1="16.85" y1="27.11" x2="16.85" y2="12.06" xlink:href="#linear-gradient"/>
    <linearGradient id="linear-gradient-4" x1="34.81" y1="27.11" x2="34.81" y2="12.06" xlink:href="#linear-gradient"/>
    <linearGradient id="linear-gradient-5" x1="44.45" y1="27.11" x2="44.45" y2="12.06" xlink:href="#linear-gradient"/>
    <linearGradient id="linear-gradient-6" x1="55.75" y1="27.11" x2="55.75" y2="12.06" xlink:href="#linear-gradient"/>
    <radialGradient id="radial-gradient-6" cx="60.33" cy="13.34" r="1.56" xlink:href="#radial-gradient"/>
    <linearGradient id="linear-gradient-7" x1="67.9" y1="31.76" x2="67.9" y2="10.97" xlink:href="#linear-gradient"/>
    <linearGradient id="linear-gradient-8" x1="60.75" y1="31.76" x2="60.75" y2="10.97" xlink:href="#linear-gradient"/>
    <linearGradient id="linear-gradient-9" x1="25.68" y1="32.57" x2="27.71" y2="23.04" gradientTransform="matrix(1, 0, 0, -1, 0, 33)" xlink:href="#radial-gradient"/>
    <linearGradient id="linear-gradient-10" x1="25.9" y1="32.48" x2="27.94" y2="22.94" gradientTransform="matrix(1, 0, 0, -1, 0, 33)" xlink:href="#radial-gradient"/>
  </defs>
  <title>okusno</title>
  <g id="okusnoje">
    <g>
      <path d="M5.8,9C2.3,9,0,11.7,0,15.2s2.1,6.1,5.6,6.1,5.8-2.4,5.8-6.3C11.5,11.7,9.5,9,5.8,9Zm0,10.1c-1.8,0-2.9-1.6-2.9-4s1.1-4,2.9-4,2.9,1.8,2.9,4S7.6,19.1,5.8,19.1Z" fill="#007934"/>
      <path d="M18.1,11.9c0-.4.2-.7.8-.7a3,3,0,0,1,1,.2l.3-.4v-.5a.47.47,0,0,1,.5-.5H21l.6-.8H18.3l-2.7,4a14.8,14.8,0,0,0-.8,1.3h-.1V9.2H12V21.1h2.7V17.2l1-1.3L18.6,21h3.1l-4.2-6.8,1-1.3A1.88,1.88,0,0,1,18.1,11.9Z" fill="#007934"/>
      <path d="M35.8,14a17.78,17.78,0,0,1-1.8-.8h-.3a4.73,4.73,0,0,0-1.2.7v1.4A6.89,6.89,0,0,0,34,16c1.4.5,2,.9,2,1.7S35.3,19,34.1,19a5.82,5.82,0,0,1-1.9-.3,4.69,4.69,0,0,1-1,1.6c-.1.1-.3.2-.4.3a8.52,8.52,0,0,0,3.1.6c3.3,0,4.8-1.7,4.8-3.7C38.9,15.9,37.9,14.8,35.8,14Z" fill="#007934"/>
      <path d="M33.1,10.4v.8a.37.37,0,0,1-.1.3c.1,0,.2-.1.3-.1a5.31,5.31,0,0,1,1.1-.3c.2,0,.3,0,.4.1s.4-.1.6-.1a4.78,4.78,0,0,1,2.5.6l.6-2.2a7.53,7.53,0,0,0-3-.6,5.4,5.4,0,0,0-3.3,1h.5C32.8,10,33.1,10.2,33.1,10.4Z" fill="#007934"/>
      <path d="M46.9,12.6c0,1.8.1,3.4.2,5H47a37.54,37.54,0,0,0-1.9-4.1L42.6,9.1H39.5V21H42V17.5c0-1.9,0-3.6-.1-5.2H42c.6,1.4,1.4,2.9,2.1,4.2l2.5,4.6h2.8V9.2H46.9Z" fill="#007934"/>
      <path d="M55.7,9c-3.5,0-5.8,2.7-5.8,6.2s2.1,6.1,5.6,6.1a5.71,5.71,0,0,0,3.2-.9v-.2a1.58,1.58,0,0,1,1.6-1.6h.2a6.87,6.87,0,0,0,.9-3.6C61.4,11.7,59.4,9,55.7,9Zm0,10.1c-1.8,0-2.9-1.6-2.9-4s1.1-4,2.9-4,2.9,1.8,2.9,4S57.5,19.1,55.7,19.1Z" fill="#007934"/>
    </g>
    <circle cx="60.4" cy="20.2" r="1.1" fill="#007934"/>
    <g>
      <path d="M70.4,14.9H65.6v5.2h5.3v.7H64.7V8.9h5.9v.7h-5v4.6h4.8Z" fill="#007934"/>
      <path d="M62.5,8.9h1v9.6c0,3.5-1.8,4.5-3.7,4.5a7.44,7.44,0,0,1-1.7-.3l.2-.8a4.31,4.31,0,0,0,1.5.3c1.8,0,2.8-.8,2.8-3.9V8.9Z" fill="#007934"/>
    </g>
    <circle cx="24.8" cy="8" r="0.4" fill="#007934"/>
    <path d="M26,6.7a2.59,2.59,0,0,1-.1-1.5c.1-.5.8-1.1,1-1.4C28.3,2.2,27,0,27,0a2.6,2.6,0,0,1-.9,3.2,2.53,2.53,0,0,0-1,1.9A2.18,2.18,0,0,0,26,6.7Z" fill="#007934"/>
    <path d="M29.4,21.5H23.7c-.2,0-.4.1-.4.3s.2.3.4.3h5.7c.2,0,.4-.1.4-.3S29.7,21.5,29.4,21.5Z" fill="#007934"/>
    <circle cx="24.8" cy="9.5" r="0.5" fill="#007934"/>
    <path d="M27.1,6.4A1.46,1.46,0,0,1,26.6,5a2,2,0,0,0-.1,1.3,6.34,6.34,0,0,0,1.1,1.3c.6.7,0,2.1,0,2.1a4.65,4.65,0,0,0,.6-1.8C28.1,7.3,27.8,7,27.1,6.4Z" fill="#007934"/>
    <path d="M19.7,12.8a11.67,11.67,0,0,1,1.4.9v3.7a3.69,3.69,0,0,0,1.1,2.5A3.61,3.61,0,0,0,24.4,21h4.4A3.61,3.61,0,0,0,31,19.9a3.86,3.86,0,0,0,1.1-2.5V13.7a5.49,5.49,0,0,1,1.4-.9c.3-.1,1.1-.2,1.1-.9,0-.5-1-.1-1.3,0-.8.4-1.3.6-1.3.6V11.3h.5v-.8h-12v.8H21v1.2s-.5-.2-1.3-.6c-.2-.1-1.3-.5-1.3,0C18.6,12.6,19.4,12.7,19.7,12.8Z" fill="#007934"/>
    <circle cx="23.6" cy="9.2" r="0.3" fill="#007934"/>
    <circle cx="22" cy="7.4" r="0.3" fill="#007934"/>
    <path d="M19.7,12.6a11.67,11.67,0,0,1,1.4.9v3.7a3.69,3.69,0,0,0,1.1,2.5,3.61,3.61,0,0,0,2.2,1.1h4.4A3.61,3.61,0,0,0,31,19.7a3.54,3.54,0,0,0,1.1-2.5V13.6h0v-.1a5.49,5.49,0,0,1,1.4-.9c.3-.1,1-.2,1.1-.8-.1-.4-1-.1-1.3,0-.8.4-1.3.6-1.3.6V11.2h0v-.1h.5v-.6h-12v.6H21v1.2h0v.1s-.5-.2-1.3-.6c-.2-.1-1.2-.5-1.3,0C18.6,12.5,19.4,12.5,19.7,12.6Z" fill="url(#radial-gradient)"/>
    <path d="M24.8,8.2c.2,0,.3-.1.4-.3s-.2-.3-.4-.3-.3.1-.4.3C24.5,8,24.6,8.2,24.8,8.2Z" fill="url(#radial-gradient-2)"/>
    <path d="M24.8,9.8a.66.66,0,0,0,.5-.4.46.46,0,0,0-.5-.4.66.66,0,0,0-.5.4A.46.46,0,0,0,24.8,9.8Z" fill="url(#radial-gradient-3)"/>
    <path d="M23.6,9.4a.27.27,0,0,0,.3-.3.32.32,0,0,0-.3-.3.3.3,0,0,0,0,.6Z" fill="url(#radial-gradient-4)"/>
    <path d="M22,7.5c.1,0,.2-.1.3-.2s-.1-.2-.3-.2-.2.1-.3.2C21.8,7.4,21.9,7.5,22,7.5Z" fill="url(#radial-gradient-5)"/>
    <g>
      <path d="M33.1,10.3v.9c.1,0,.1-.1.2-.1a5.31,5.31,0,0,1,1.1-.3c.2,0,.3,0,.4.1s.4-.1.6-.1a4.78,4.78,0,0,1,2.5.6l.6-2a7.53,7.53,0,0,0-3-.6,5,5,0,0,0-3.1.9h.3C32.8,9.8,33.1,10,33.1,10.3Z" fill="url(#linear-gradient)"/>
      <g>
        <path d="M5.8,9C2.3,9,0,11.6,0,15.2c0,3.4,2.1,6,5.6,6s5.8-2.3,5.8-6.2C11.5,11.7,9.5,9,5.8,9Zm2.8,6.1c0,2.3-1,4-2.9,4s-2.9-1.6-2.9-4v-.2c0-2.3,1.1-4,2.9-4s2.9,1.8,2.9,4v.2Z" fill="url(#linear-gradient-2)"/>
        <path d="M17.7,14.2h0l.9-1.3a1.1,1.1,0,0,1-.5-1v-.2c0-.4.2-.7.8-.7a3,3,0,0,1,1,.2l.3-.4v-.5a.47.47,0,0,1,.5-.5H21l.5-.7H18.3l-2.7,4a14.8,14.8,0,0,0-.8,1.3h-.1V9.2H12V21h2.7V17.2l1-1.3L18.6,21h3.1l-4-6.8Z" fill="url(#linear-gradient-3)"/>
        <path d="M35.8,14a17.78,17.78,0,0,1-1.8-.8h-.3a4.73,4.73,0,0,0-1.2.7v1.3a6.89,6.89,0,0,0,1.5.7c1.4.5,2,.9,2,1.7v.2c0,.8-.7,1.3-1.9,1.3a5.82,5.82,0,0,1-1.9-.3,4.69,4.69,0,0,1-1,1.6c-.1.1-.2.2-.3.2a8.39,8.39,0,0,0,3,.6c3.2,0,4.8-1.7,4.8-3.6C38.9,15.8,37.9,14.8,35.8,14Z" fill="url(#linear-gradient-4)"/>
        <path d="M46.9,12.5c0,1.8.1,3.4.2,5h0v.1H47a37.54,37.54,0,0,0-1.9-4.1L42.6,9.1H39.5V20.9H42V17.5c0-1.9,0-3.6-.1-5.2h0v-.1H42c.6,1.4,1.4,2.9,2.1,4.2L46.6,21h2.8V9.2H46.9Z" fill="url(#linear-gradient-5)"/>
        <path d="M55.6,21.1a6.6,6.6,0,0,0,3.2-.8V20a1.58,1.58,0,0,1,1.6-1.6h.2a6.87,6.87,0,0,0,.9-3.6c0-3.2-2-5.9-5.7-5.9-3.5,0-5.8,2.6-5.8,6.2C50,18.5,52,21.1,55.6,21.1ZM52.8,15c0-2.3,1.1-4,2.9-4s2.9,1.8,2.9,4v.2c0,2.3-1,4-2.9,4s-2.9-1.6-2.9-4V15Z" fill="url(#linear-gradient-6)"/>
        <path d="M61.5,20.2a1.11,1.11,0,0,0-1.1-1.1.37.37,0,0,0-.3.1,1.05,1.05,0,0,0-.5.9,1.11,1.11,0,0,0,1.1,1.1.37.37,0,0,0,.3-.1A1.05,1.05,0,0,0,61.5,20.2Z" fill="url(#radial-gradient-6)"/>
        <polygon points="65.6 20 65.6 14.9 65.6 14.8 70.4 14.8 70.4 14.2 65.6 14.2 65.6 14.1 65.6 9.7 65.6 9.5 70.7 9.5 70.7 8.9 64.8 8.9 64.8 20.7 71 20.7 71 20.1 65.6 20.1 65.6 20" fill="url(#linear-gradient-7)"/>
        <path d="M62.5,18.1v.1c0,3.1-1,3.9-2.8,3.9a3.34,3.34,0,0,1-1.5-.3l-.1.7a3.81,3.81,0,0,0,1.6.3c2,0,3.7-1,3.7-4.5V8.9h-1v9.2Z" fill="url(#linear-gradient-8)"/>
      </g>
    </g>
    <path d="M26,6.7a2.59,2.59,0,0,1-.1-1.5c.1-.5.8-1.1,1-1.4C28.3,2.2,27,0,27,0a2.6,2.6,0,0,1-.9,3.2,2.53,2.53,0,0,0-1,1.9A2.18,2.18,0,0,0,26,6.7Z" fill="url(#linear-gradient-9)"/>
    <path d="M27.1,6.5a1.46,1.46,0,0,1-.5-1.4,2.34,2.34,0,0,0-.1,1.4,6.34,6.34,0,0,0,1.1,1.3c.6.7,0,2.1,0,2.1a4.65,4.65,0,0,0,.6-1.8C28.1,7.5,27.8,7.2,27.1,6.5Z" fill="url(#linear-gradient-10)"/>
  </g>
</svg>
