<svg xmlns="http://www.w3.org/2000/svg" xmlns:xlink="http://www.w3.org/1999/xlink" viewBox="0 0 228.88 376.14">
  <defs>
    <linearGradient id="linear-gradient" x1="0.01" y1="58.37" x2="228.87" y2="58.37" gradientUnits="userSpaceOnUse">
      <stop offset="0" stop-color="#e9e8e8"/>
      <stop offset="0.1" stop-color="#f1f1f1"/>
      <stop offset="0.26" stop-color="#f8f9fa"/>
      <stop offset="0.54" stop-color="#fafbfc"/>
      <stop offset="0.69" stop-color="#f7f8f8"/>
      <stop offset="0.82" stop-color="#ecedee"/>
      <stop offset="0.95" stop-color="#dbdbdb"/>
      <stop offset="1" stop-color="#d2d2d2"/>
    </linearGradient>
  </defs>
  <title>fridge-3</title>
  <g style="isolation: isolate">
    <g id="Layer_1" data-name="Layer 1">
      <g>
        <g>
          <path d="M0,354.2c0,7.24,6.37,13.16,14.15,13.16H214.68c7.78,0,14.14-5.92,14.14-13.16V14.68c0-7.23-6.36-13.16-14.14-13.16H14.13C6.35,1.52,0,7.45,0,14.68Z" fill="#dbdbdb"/>
          <rect x="10.32" y="366.86" width="206.81" height="3.8" fill="#a3a3a2"/>
        </g>
        <rect x="13.49" y="129.47" width="200.92" height="230.31" fill="#dbf1fa"/>
        <rect x="15.26" y="131.24" width="197.39" height="228.21" fill="#dbf1fa"/>
        <polygon points="38.08 357.1 15.26 359.17 15.26 131.24 38.08 131.24 38.08 357.1" fill="#ebf7fc"/>
        <polygon points="212.65 359.17 189.83 357.1 189.83 131.24 212.65 131.24 212.65 359.17" fill="#ebf7fc"/>
        <g>
          <path d="M170.11,276.93c5.89,4.83,9.71,9.47,17.12,14.69l5.36-.4c-6.27-4-12.41-9.91-18.39-14.29Z" fill="#7dbbcc"/>
          <path d="M46.24,276.93c-6.6,4.14-13.33,9.85-20.19,13.57l4.94.4c6.49-3.86,12.85-9.7,19.06-14Z" fill="#7dbbcc"/>
          <path d="M185.83,276.93c6.42,4,12.95,9.62,19.6,13.25l4.76-.41c-6.93-3.58-13.8-9-20.55-12.84Z" fill="#7dbbcc"/>
          <path d="M177.9,276.93c6,4.27,12.19,10.11,18.49,14l5.06-.4c-6.66-3.74-13.21-9.45-19.62-13.59Z" fill="#7dbbcc"/>
          <path d="M147.63,276.93c4.06,5.67,6.51,10.57,11.48,16.51l6.19-.36c-5.77-5.8-8.63-10.64-13.3-16.15Z" fill="#7dbbcc"/>
          <path d="M162.5,276.93c5.38,5.13,8.77,9.87,15.47,15.34l5.65-.39c-7.35-5.32-11.1-10-17-14.95Z" fill="#7dbbcc"/>
          <path d="M126,276.93c1.47,6.28,2.31,11.41,4.07,17.89l6.82-.28c-2.75-6.37-4.07-11.45-6.33-17.61Z" fill="#7dbbcc"/>
          <path d="M133.12,276.93c2.4,6.1,3.8,11.16,6.7,17.48l6.64-.31c-3.83-6.19-5.69-11.2-8.83-17.17Z" fill="#7dbbcc"/>
          <path d="M118.83,276.93c.47,6.43.74,11.62,1.28,18.24l7-.24c-1.59-6.53-2.35-11.67-3.66-18Z" fill="#7dbbcc"/>
          <path d="M140.34,276.93c3.27,5.9,5.2,10.88,9.18,17l6.43-.33c-4.85-6-7.21-10.94-11.16-16.69Z" fill="#7dbbcc"/>
          <path d="M159.28,276.93H155c4.78,5.41,7.7,10.23,13.58,15.95l5.94-.38C167.91,286.93,164.6,282.17,159.28,276.93Z" fill="#7dbbcc"/>
          <path d="M104.65,276.93c-1.56,6.33-2.47,11.47-4.42,18,2.77.11,4.16.16,6.94.25.9-6.62,1.33-11.81,2-18.24Z" fill="#7dbbcc"/>
          <path d="M90.45,276.93c-3.37,6-5.38,11-9.55,17.16l6.58.31c3.24-6.32,4.8-11.37,7.44-17.47Z" fill="#7dbbcc"/>
          <path d="M97.56,276.93c-2.5,6.16-4,11.24-7.06,17.6l6.77.28c2.11-6.48,3.11-11.6,4.82-17.88Z" fill="#7dbbcc"/>
          <path d="M111.73,276.93c-.56,6.47-.89,11.67-1.62,18.33l3.59.12,3.47-.11c-.37-6.66-.54-11.87-.84-18.34Z" fill="#7dbbcc"/>
          <path d="M83.29,276.93c-4.17,5.75-6.68,10.67-11.85,16.67l6.35.34c4.3-6.14,6.39-11.11,9.9-17Z" fill="#7dbbcc"/>
          <path d="M38.41,276.93c-6.93,3.86-14,9.25-21.08,12.82l4.63.4c6.83-3.61,13.56-9.2,20.15-13.22Z" fill="#7dbbcc"/>
          <path d="M53.88,276.93c-6.18,4.38-12.52,10.32-19,14.27l5.24.4c7.69-5.21,11.65-9.85,17.74-14.67Z" fill="#7dbbcc"/>
          <path d="M61.41,276.93c-6,4.95-9.93,9.62-17.57,14.93l5.54.39c7-5.47,10.52-10.19,16.11-15.32Z" fill="#7dbbcc"/>
          <path d="M76.08,276.93c-4.89,5.51-7.88,10.35-14,16.14l6.09.35c5.29-5.93,7.88-10.82,12.17-16.49Z" fill="#7dbbcc"/>
          <path d="M68.8,276.93c-5.52,5.24-9,10-15.88,15.56l5.82.37C64.93,287.15,68,282.34,73,276.93Z" fill="#7dbbcc"/>
        </g>
        <rect x="14.83" y="289.47" width="197.81" height="6.27" fill="#fff"/>
        <rect x="15.83" y="232.47" width="197.81" height="6.27" fill="#fff"/>
        <path d="M215.64,1H14.44A13.94,13.94,0,0,0,.5,14.93L0,116.61l228.84.12,0-101.8C228.84,7.23,223.34,1,215.64,1Z" fill="#fff"/>
        <polygon points="15.2 359.15 38.01 330.88 189.77 330.88 212.58 359.15 15.2 359.15" fill="#7dbbcc"/>
        <g>
          <path d="M170.11,184.33c5.89-4.83,9.71-9.47,17.12-14.69l5.36.4c-6.27,4-12.41,9.91-18.39,14.29Z" fill="#7dbbcc"/>
          <path d="M46.24,184.33c-6.6-4.15-13.33-9.85-20.19-13.57l4.94-.4c6.49,3.86,12.85,9.7,19.06,14Z" fill="#7dbbcc"/>
          <path d="M185.83,184.33c6.42-4,12.95-9.62,19.6-13.25l4.76.41c-6.93,3.58-13.8,9-20.55,12.84Z" fill="#7dbbcc"/>
          <path d="M177.9,184.33c6-4.27,12.19-10.12,18.49-14l5.06.4c-6.66,3.74-13.21,9.45-19.62,13.59Z" fill="#7dbbcc"/>
          <path d="M147.63,184.33c4.06-5.67,6.51-10.57,11.48-16.51l6.19.36c-5.77,5.8-8.63,10.64-13.3,16.15Z" fill="#7dbbcc"/>
          <path d="M162.5,184.33c5.38-5.13,8.77-9.87,15.47-15.34l5.65.39c-7.35,5.32-11.1,10-17,15Z" fill="#7dbbcc"/>
          <path d="M126,184.33c1.47-6.29,2.31-11.41,4.07-17.89l6.82.28c-2.75,6.37-4.07,11.44-6.33,17.61Z" fill="#7dbbcc"/>
          <path d="M133.12,184.33c2.4-6.11,3.8-11.16,6.7-17.48l6.64.31c-3.83,6.19-5.69,11.2-8.83,17.17Z" fill="#7dbbcc"/>
          <path d="M118.83,184.33c.47-6.44.74-11.62,1.28-18.25l7,.25c-1.59,6.53-2.35,11.67-3.66,18Z" fill="#7dbbcc"/>
          <path d="M140.34,184.33c3.27-5.9,5.2-10.88,9.18-17l6.43.33c-4.85,6-7.21,10.94-11.16,16.69Z" fill="#7dbbcc"/>
          <path d="M159.28,184.33H155c4.78-5.42,7.7-10.23,13.58-16l5.94.38C167.91,174.32,164.6,179.09,159.28,184.33Z" fill="#7dbbcc"/>
          <path d="M104.65,184.33c-1.56-6.33-2.47-11.47-4.42-18l6.94-.24c.9,6.62,1.33,11.81,2,18.24Z" fill="#7dbbcc"/>
          <path d="M90.45,184.33c-3.37-6-5.38-11-9.55-17.16l6.58-.31c3.24,6.32,4.8,11.37,7.44,17.47Z" fill="#7dbbcc"/>
          <path d="M97.56,184.33c-2.5-6.16-4-11.24-7.06-17.6l6.77-.28c2.11,6.48,3.11,11.6,4.82,17.88Z" fill="#7dbbcc"/>
          <path d="M111.73,184.33c-.56-6.47-.89-11.67-1.62-18.34l3.59-.11,3.47.11c-.37,6.66-.54,11.87-.84,18.34Z" fill="#7dbbcc"/>
          <path d="M83.29,184.33c-4.17-5.75-6.68-10.67-11.85-16.67l6.35-.34c4.3,6.13,6.39,11.11,9.9,17Z" fill="#7dbbcc"/>
          <path d="M38.41,184.33c-6.93-3.87-14-9.26-21.08-12.82L22,171.1c6.83,3.62,13.56,9.21,20.15,13.23Z" fill="#7dbbcc"/>
          <path d="M53.88,184.33C47.7,180,41.36,174,34.89,170.06l5.24-.4c7.69,5.21,11.65,9.85,17.74,14.67Z" fill="#7dbbcc"/>
          <path d="M61.41,184.33c-6-5-9.93-9.63-17.57-14.94l5.54-.38c7,5.46,10.52,10.19,16.11,15.32Z" fill="#7dbbcc"/>
          <path d="M76.08,184.33c-4.89-5.51-7.88-10.35-14-16.14,2.43-.14,3.65-.22,6.09-.35,5.29,5.92,7.88,10.82,12.17,16.49Z" fill="#7dbbcc"/>
          <path d="M68.8,184.33c-5.52-5.24-9-10-15.88-15.56l5.82-.37C64.93,174.1,68,178.92,73,184.33Z" fill="#7dbbcc"/>
        </g>
        <rect x="15.26" y="165.56" width="197.39" height="6.28" fill="#fff"/>
        <path d="M228.87,116.73V15.18c0-2-1.91-15-13-15.17,0,0-27.5,0-102.39,0C50.81,0,11.88,0,11.88,0,4.71.26.11,6.77.05,11.76S0,116.61,0,116.61" fill="url(#linear-gradient)"/>
        <rect y="117.34" width="228.84" height="3.17" fill="#a3a3a2"/>
      </g>
      <path d="M28.56,61c0,16.8-2.4,23.4-5.3,23.4S18,77.75,18,61s2.4-23.4,5.3-23.4S28.56,44.15,28.56,61Z" fill="#efeded"/>
      <path d="M23.26,84.35c-2.9,0-5.3-6.6-5.3-23.4s2.4-23.4,5.3-23.4S26.16,84.35,23.26,84.35Z" fill="#c7c9c9"/>
      <path d="M12,367.95H39.94a0,0,0,0,1,0,0v5.15a3,3,0,0,1-3,3H15a3,3,0,0,1-3-3v-5.15A0,0,0,0,1,12,367.95Z" fill="#a3a3a2"/>
      <rect x="187.89" y="367.97" width="27.93" height="8.17" rx="2.9" ry="2.9" fill="#a3a3a2"/>
      <g>
        <polygon points="45.87 352.46 58.56 341.3 60.56 330.03 41.69 336.11 45.87 352.46" fill="#818e99" opacity="0.5" style="mix-blend-mode: multiply"/>
        <path d="M104.91,349.5l20.53-13.85s-1.41-5.69-4.33-6.53-1.57-5-10.81-7.46S98.39,345.34,104.91,349.5Z" fill="#818e99" opacity="0.5" style="mix-blend-mode: multiply"/>
        <path d="M189.12,348.59s9.21-7.76,9.08-10.66,1-10.48-3.94-14.13-15.82-3-17.45-6.51-9-11.88-17.43-8.13S180.44,347.27,189.12,348.59Z" fill="#818e99" opacity="0.5" style="mix-blend-mode: multiply"/>
      </g>
      <g>
        <g>
          <path d="M138.07,335.93s-.2,7.37.09,8.69c.4,1.82,6.74,4.78,12.17,7s20.32,5.1,27.25,2.93,13.22-5.5,14.56-11.37,2-18-.8-21.62S142.42,331.61,138.07,335.93Z" fill="#c25a28"/>
          <path d="M192.07,323c-.43,1.79-1.18,3.55-1.75,5.44-1,3.34-2.75,6.43-3.79,9.7a3.28,3.28,0,0,1,0,1.43c-.94,4.24-3.26,8.52-7.06,10.82-2.13,1.28-5,1.32-7.41,1.31-2.7,0-5.4.13-8.1,0a50.87,50.87,0,0,1-15.14-3,34.17,34.17,0,0,1-10.77-5.35,9.34,9.34,0,0,0,.11,1.3c.4,1.82,6.74,4.78,12.17,7s20.32,5.1,27.25,2.93,13.22-5.5,14.56-11.37C193.35,338,194,327.61,192.07,323Z" fill="#ba5227"/>
          <path d="M167.39,347.49c-12.52-.5-26.62-6.22-28.54-8.92a4.1,4.1,0,0,1-.48-4c.82-2.09,3.28-3.94,6-4.5,5.24-1.09,11.08-4.88,17.84-11.59,4-4,8.54-5.95,13.39-5.76a21.92,21.92,0,0,1,9.19,2.71c4.95,2.58,8,5.78,7.91,13.73-.08,6.83-2.13,15-17.4,17.81a35.47,35.47,0,0,1-7.9.48Z" fill="#f1845c"/>
          <path d="M184.21,316.56c-4.44-2.31-12.75-5.52-21.15,2.83-9.22,9.15-15.16,11.23-18.45,11.92s-6.69,3.82-4.76,6.55,21.44,10.46,35.22,7.95,16.31-9.4,16.4-16.62S188.94,319,184.21,316.56Z" fill="#b43225"/>
          <path d="M143.16,334.85a13.45,13.45,0,0,1,7.42-1.62c4.28.33,8.08-2.74,8.49-3.6a7.48,7.48,0,0,1-6.83,4.36C146.64,334.15,145.44,333.56,143.16,334.85Z" fill="#f79b7a"/>
          <path d="M181.72,322.53a7.47,7.47,0,0,0-4.83.12,2.81,2.81,0,0,0-1,4.78c1.41,1.13,6.55.95,7.42.3S184.66,323.88,181.72,322.53Z" fill="#fff"/>
          <path d="M181.15,323.21a5.57,5.57,0,0,0-3.61.08,2.11,2.11,0,0,0-.77,3.58c1,.84,4.89.71,5.54.22A2.53,2.53,0,0,0,181.15,323.21Z" fill="#d9d9d8"/>
          <path d="M159,337.57s.33,1.36,3.52,2.91a10.24,10.24,0,0,0,7.77.35c.77-.49-3.75.84-6.64-.49A32.07,32.07,0,0,1,159,337.57Z" fill="#f79b7a"/>
          <path d="M169.5,315a11.15,11.15,0,0,1-2.24,4.19c-1.61,1.72-3.88,2.29-3.78,3.73s.23-.52,1.61-1.33a15.51,15.51,0,0,0,4.54-4.35A2.23,2.23,0,0,0,169.5,315Z" fill="#f79b7a"/>
          <path d="M169.72,326.6s2,2.73-.17,4.18-.27.55,1.07,0S170.61,327.3,169.72,326.6Z" fill="#f79b7a"/>
          <path d="M188.88,328.62s-3.27,4.95-5.22,4.66c-1.64-.24-6.07,3.23-6.32,4.29s-.53.85,1.64-.7,3.35-2.8,5.4-3C186.74,333.62,188.85,329.42,188.88,328.62Z" fill="#f79b7a"/>
        </g>
        <g>
          <path d="M119.89,340s2.07,7.07,2.76,8.23c.94,1.62,7.89,2.47,13.74,2.95s20.91-1.4,26.83-5.61,10.88-9.3,10.35-15.29-3.69-17.73-7.42-20.33S122.69,334.57,119.89,340Z" fill="#c25a28"/>
          <path d="M167.26,311c.14,1.85,0,3.75,0,5.72.08,3.49-.63,7-.61,10.4a3.29,3.29,0,0,1,.43,1.36c.41,4.32-.47,9.11-3.38,12.47-1.63,1.88-4.36,2.8-6.65,3.53-2.57.83-5.09,1.79-7.69,2.53a50.58,50.58,0,0,1-15.34,1.8,34.69,34.69,0,0,1-11.89-1.77,8.21,8.21,0,0,0,.51,1.19c.94,1.62,7.89,2.47,13.74,2.95s20.91-1.4,26.83-5.61,10.88-9.3,10.35-15.29C173.1,324.9,170.49,314.88,167.26,311Z" fill="#ba5227"/>
          <path d="M151.34,342c-12.07,3.38-27.25,2.29-29.9.3a4.08,4.08,0,0,1-1.68-3.62c.14-2.23,1.91-4.75,4.31-6.12,4.66-2.65,9-8.06,13.4-16.52,2.61-5.06,6.3-8.29,11-9.6a21.79,21.79,0,0,1,9.57-.26c5.51.93,9.4,3,11.76,10.62,2,6.53,2.61,15-11.06,22.31a36.17,36.17,0,0,1-7.37,2.89Z" fill="#f1845c"/>
          <path d="M157.81,307.37c-4.93-.83-13.83-1.32-19.25,9.21-5.95,11.54-11,15.36-13.88,17s-5.19,5.69-2.51,7.69,23.62,3.35,36-3.29,12.62-14,10.47-20.86S163.07,308.26,157.81,307.37Z" fill="#b43225"/>
          <path d="M124.4,337.42A13.41,13.41,0,0,1,131,333.6c4.16-1,6.83-5.1,7-6.05a7.51,7.51,0,0,1-5.17,6.26C127.49,335.68,126.16,335.5,124.4,337.42Z" fill="#f79b7a"/>
          <path d="M157.29,313.82a7.51,7.51,0,0,0-4.56,1.6,2.81,2.81,0,0,0,.49,4.87c1.69.64,6.52-1.12,7.14-2S160.49,314.2,157.29,313.82Z" fill="#fff"/>
          <path d="M157,314.64a5.58,5.58,0,0,0-3.41,1.19,2.1,2.1,0,0,0,.37,3.64c1.26.48,4.87-.83,5.34-1.49A2.53,2.53,0,0,0,157,314.64Z" fill="#d9d9d8"/>
          <path d="M140.28,335.14s.74,1.19,4.25,1.68a10.27,10.27,0,0,0,7.5-2.07c.58-.7-3.31,2-6.47,1.58A31.57,31.57,0,0,1,140.28,335.14Z" fill="#f79b7a"/>
          <path d="M143.34,310.43a11.06,11.06,0,0,1-.85,4.68c-1,2.13-3,3.37-2.44,4.71s.06-.57,1.13-1.76a15.52,15.52,0,0,0,3-5.54A2.22,2.22,0,0,0,143.34,310.43Z" fill="#f79b7a"/>
          <path d="M147.11,321.39s2.78,2,1.13,4-.08.6,1-.29S148.18,321.78,147.11,321.39Z" fill="#f79b7a"/>
          <path d="M166,317.41s-1.58,5.71-3.53,6c-1.64.28-4.78,4.95-4.69,6s-.25,1,1.35-1.17,2.32-3.71,4.2-4.53C165.48,322.82,166.19,318.17,166,317.41Z" fill="#f79b7a"/>
        </g>
        <g>
          <path d="M66.27,319.54a8,8,0,0,0-3.34,1.36c-1.66,2.07-.65,14.67-.39,20a11.48,11.48,0,0,0,3.43,8l.3-.13Z" fill="#ffce38"/>
          <path d="M87.72,320.9c-.64-4.31-15.31-3-21.82-1.26v29.2l.07.06L82.06,342C84.29,340.84,88.52,326.24,87.72,320.9Z" fill="#fcb316"/>
          <g>
            <path d="M70.56,333.75c0,1.37-.72,2.48-1.6,2.48s-1.6-1.11-1.6-2.48.71-2.48,1.6-2.48S70.56,332.38,70.56,333.75Z" fill="#f8951d"/>
            <path d="M76.28,330.74c0,1.27-.6,2.3-1.33,2.3s-1.33-1-1.33-2.3.6-2.3,1.33-2.3S76.28,329.47,76.28,330.74Z" fill="#f8951d"/>
            <path d="M74.14,338.35c0,1.38-.68,2.5-1.51,2.5s-1.52-1.12-1.52-2.5.68-2.5,1.52-2.5S74.14,337,74.14,338.35Z" fill="#f8951d"/>
            <path d="M70.82,343.55c0,1.49-.84,2.7-1.86,2.7s-1.86-1.21-1.86-2.7.83-2.7,1.86-2.7S70.82,342.06,70.82,343.55Z" fill="#f8951d"/>
            <path d="M80.07,339.17c0,2.18-.93,3.95-2.08,3.95s-2.07-1.77-2.07-3.95.93-3.94,2.07-3.94S80.07,337,80.07,339.17Z" fill="#f8951d"/>
            <path d="M84.88,327.72c0,1.48-.83,2.68-1.86,2.68s-1.86-1.2-1.86-2.68S82,325,83,325,84.88,326.24,84.88,327.72Z" fill="#f8951d"/>
            <path d="M80.84,331.34c0,1.17-.57,2.11-1.28,2.11s-1.27-.94-1.27-2.11.57-2.1,1.27-2.1S80.84,330.18,80.84,331.34Z" fill="#f8951d"/>
          </g>
          <path d="M81.16,337.85V355.3s15.17,1.23,23.87-6c7.67-6.34,6.72-9.72,6.72-13.13,0-5.45.81-12.19-.7-16.29S84.4,334.64,81.16,337.85Z" fill="#fcb316"/>
          <path d="M111.05,319.92c-.51-1.41-3.81-.12-8,2.31v28.56a19.09,19.09,0,0,0,2-1.45c7.67-6.34,6.72-9.72,6.72-13.13C111.75,330.76,112.56,324,111.05,319.92Z" fill="#faa51a"/>
          <path d="M85.57,307.05c-13.4,1.11-23.7,8.92-23,17.44a11.22,11.22,0,0,0,3.39,7l20.88-9s-3.41,9.3-5.69,15.37a36.72,36.72,0,0,0,7,.07c13.4-1.11,23.69-8.92,23-17.44S99,305.94,85.57,307.05Z" fill="#fdc110"/>
          <g>
            <path d="M44.19,325.6v26.93a6.81,6.81,0,0,0,1.42.11l5.69-15.37V319.82S47.49,323.1,44.19,325.6Z" fill="#fcb316"/>
            <path d="M45.63,324.49a33.79,33.79,0,0,1-5.4,3.72c-2.63,1.11-8.13,1-9.81.58v17.45s1.71,2.77,7.63,4.69,7.56,1.71,7.56,1.71l0-.05Z" fill="#faa21b"/>
            <path d="M45.61,335.19c2.29-6.08,5.69-15.37,5.69-15.37l-20.88,9C33.74,332.18,39.2,334.52,45.61,335.19Z" fill="#fdc110"/>
            <g>
              <path d="M47.75,337.15c0,1.62-.32,2.93-.7,2.93s-.7-1.31-.7-2.93.31-2.94.7-2.94S47.75,335.53,47.75,337.15Z" fill="#f8951d"/>
              <path d="M49.87,337.15c0,2.2-.3,4-.68,4s-.69-1.79-.69-4,.31-4,.69-4S49.87,334.94,49.87,337.15Z" fill="#f8951d"/>
              <path d="M47.75,344.79c0,1.14-.32,2.07-.7,2.07s-.7-.93-.7-2.07.31-2.08.7-2.08S47.75,343.64,47.75,344.79Z" fill="#f8951d"/>
              <path d="M50.77,328.82c.13,1.49-.13,2.73-.58,2.77s-.91-1.14-1-2.63.13-2.74.58-2.77S50.65,327.33,50.77,328.82Z" fill="#f8951d"/>
            </g>
          </g>
          <path d="M65.87,329.65s-.52-12.2,9.08-16.85,20.93-4,23.36-3.49S85,304,72,311.58C57.47,320.16,65.87,329.65,65.87,329.65Z" fill="#ffd454"/>
        </g>
      </g>
    </g>
  </g>
</svg>
